320
 generated by VMD
  C1        27.617840        1.100101       41.106640
  C2        28.110353        0.683901       42.346745
  C3        27.164913        0.329807       43.344498
  C4        25.755033        0.592434       43.178909
  C5        25.329193        1.081897       41.898880
  C6        26.294214        1.203702       40.910519
  C7        29.813196        1.234327       40.830631
  H1        27.527742       -0.106480       44.263416
  H2        25.068800        0.237719       43.933670
  H3        24.259979        1.187385       41.789085
  H4        25.839949        1.599986       40.014416
  C8        31.130262        1.202674       40.137478
  H5        31.106411        1.299549       39.042011
  C9        32.310280        1.425516       40.700535
  H6        32.300861        1.512144       41.797077
  C10       37.109550        2.305709       39.749741
  C11       39.350304        2.269843       39.310471
  C12       39.206070        3.022151       40.476322
  C13       40.622639        2.004541       38.893078
  C14       40.337311        3.525456       41.238354
  C15       41.765442        2.506891       39.604336
  H7        40.634285        1.392471       38.003342
  C16       41.631874        3.194624       40.776981
  H8        40.119080        3.988899       42.189140
  H9        42.677097        2.182816       39.124485
  H10       42.500031        3.514319       41.334209
  C17       29.603640        0.900178       42.374542
  C18       30.318932       -0.450894       42.746986
  H11       29.955137       -0.828522       43.726460
  H12       30.114080       -1.206732       41.958908
  H13       31.426550       -0.475525       42.830025
  C19       29.856386        1.897311       43.427189
  H14       29.380474        1.611755       44.389626
  H15       30.958807        1.914521       43.563919
  H16       29.483881        2.919791       43.203365
  C20       37.790218        3.041775       40.925735
  C21       37.734615        2.213873       42.306789
  H17       36.766182        2.332283       42.838234
  H18       37.984261        1.142131       42.153923
  H19       38.464489        2.659371       43.016109
  C22       37.167805        4.466197       41.076233
  H20       36.136215        4.590711       41.469475
  H21       37.890640        4.991821       41.736195
  H22       37.191254        5.043778       40.127457
  N1        28.636177        1.491373       40.272289
  N2        38.027107        1.921135       38.829556
  C23       28.438736        2.019584       38.861938
  H23       27.485596        2.590072       38.842201
  H24       29.217291        2.717109       38.485600
  C24       28.371122        0.901329       37.841259
  H25       27.656487        0.129169       38.198170
  H26       29.364725        0.416719       37.730679
  C25       27.942677        1.588493       36.455746
  H27       27.014040        2.194011       36.528580
  H28       28.611814        2.431768       36.181042
  C26       27.791872        0.568774       35.352417
  H29       26.959419       -0.160957       35.446411
  H30       28.592449       -0.199828       35.300964
  C27       27.759853        1.194154       34.006172
  H31       26.868122        1.853261       33.937519
  H32       28.678951        1.762598       33.748394
  C28       27.599241        0.106445       32.936989
  H33       26.654808       -0.472000       33.025135
  H34       28.428965       -0.632250       32.922508
  C29       27.517256        0.801455       31.583973
  H35       26.541340        1.331589       31.613445
  H36       28.284023        1.600527       31.495249
  C30       27.735579       -0.039153       30.367495
  H37       28.813694       -0.278767       30.246773
  H38       27.179890       -0.996535       30.462107
  C31       27.339880        0.816992       29.188560
  H39       26.263266        1.052139       29.329727
  H40       27.852949        1.800594       29.128504
  C32       27.608887        0.117777       27.841829
  H41       28.688395       -0.134706       27.769463
  H42       27.005865       -0.808226       27.726919
  C33       27.358686        1.118850       26.724684
  H43       27.836388        2.118727       26.804476
  H44       26.286018        1.352535       26.554106
  C34       27.864397        0.577047       25.363678
  H45       28.970049        0.604972       25.258425
  H46       27.599161       -0.498145       25.274605
  C35       27.209709        1.373974       24.269670
  H47       26.272932        0.856075       23.972099
  H48       27.026516        2.428644       24.567047
  C36       28.081810        1.374058       22.970282
  H49       29.124619        1.730727       23.110497
  H50       28.116779        0.303484       22.675375
  C37       27.651735        2.106296       21.752331
  H51       26.758169        1.587942       21.343466
  H52       27.218222        3.076930       22.075218
  C38       28.573811        2.280865       20.526722
  H53       27.975166        2.687467       19.683739
  H54       29.188225        3.131985       20.890602
  C39       29.339540        1.090248       20.098295
  H55       29.852732        0.700950       21.003504
  H56       28.699934        0.224654       19.822666
  C40       30.389793        1.501411       19.017414
  H57       30.909092        0.668905       18.496275
  H58       29.853188        2.015578       18.191576
  H59       31.111944        2.160476       19.545099
  C41       37.920101        1.158898       37.582001
  H60       38.623745        0.313477       37.569775
  H61       36.917812        0.726620       37.445789
  C42       38.186966        2.169031       36.427952
  H62       37.287014        2.811548       36.535576
  H63       39.021542        2.876195       36.622173
  C43       38.281185        1.379882       35.126770
  H64       37.315102        0.831246       35.125744
  H65       39.117645        0.652919       35.048161
  C44       38.272034        2.287606       33.873249
  H66       37.185707        2.512135       33.811619
  H67       38.769173        3.267526       34.037365
  C45       38.749748        1.450235       32.737289
  H68       38.146427        0.517532       32.717648
  H69       39.804276        1.123620       32.862259
  C46       38.541874        2.215633       31.466513
  H70       37.499199        2.593753       31.401918
  H71       39.162487        3.134091       31.391695
  C47       38.674938        1.292471       30.244385
  H72       38.229034        0.301638       30.476198
  H73       39.757832        1.095807       30.092766
  C48       38.157520        1.920462       28.999996
  H74       37.061211        1.749275       28.944092
  H75       38.317230        3.018359       29.058599
  C49       38.826962        1.489665       27.711176
  H76       38.655602        0.407831       27.525188
  H77       39.902794        1.685287       27.907747
  C50       38.322681        2.345668       26.627033
  H78       37.240223        2.099989       26.579683
  H79       38.414368        3.450418       26.700790
  C51       38.860260        1.876848       25.279997
  H80       39.927219        1.583398       25.379025
  H81       38.369465        0.923244       24.990026
  C52       38.645710        2.851497       24.129604
  H82       37.752754        3.508712       24.200457
  H83       39.542393        3.503285       24.055740
  C53       38.578041        2.138217       22.783173
  H84       37.724228        1.427480       22.769978
  H85       39.503578        1.542824       22.630829
  C54       38.539066        3.123186       21.611849
  H86       39.272388        3.921484       21.855326
  H87       37.651726        3.791595       21.598618
  C55       38.717464        2.536123       20.186207
  H88       37.760460        1.992914       20.033276
  H89       39.501984        1.749728       20.165409
  C56       39.009312        3.592365       19.108858
  H90       39.976326        4.103858       19.302706
  H91       38.241184        4.360809       19.340797
  C57       38.979870        3.038703       17.744297
  H92       38.238201        2.242315       17.520657
  H93       39.933132        2.517462       17.512079
  C58       38.917042        4.190612       16.733200
  H94       37.943130        4.708068       16.867575
  H95       39.747551        4.911147       16.892597
  H96       39.059727        3.839683       15.688783
  C59       33.422161        1.546695       39.933743
  H97       33.274139        1.318641       38.867870
  C60       34.681068        1.810705       40.314320
  H98       34.875843        1.858078       41.395901
  C61       35.701214        2.067390       39.465595
  H99       35.425556        2.017123       38.401882
  C1        21.251511       -0.174322       40.536137
  C2        21.132854       -0.489444       41.842598
  C3        21.384430       -1.813541       42.266865
  C4        21.618759       -2.816429       41.411255
  C5        21.556320       -2.586090       39.991226
  C6        21.408211       -1.213266       39.595463
  C7        20.836704        1.824887       41.447578
  H1        21.443586       -2.075298       43.312992
  H2        21.641649       -3.845993       41.736637
  H3        21.743763       -3.369713       39.272060
  H4        21.226624       -0.929322       38.569401
  C8        20.518511        3.161581       41.729351
  H5        19.554047        3.351899       42.222897
  C9        21.202166        4.325168       41.422890
  H6        22.191708        4.177070       40.965866
  C10       20.785351        5.517996       41.816647
  H7        19.995184        5.612680       42.576038
  C11       21.520386        6.783386       41.761826
  C12       22.900591        8.405063       41.215214
  C13       22.376484        8.835671       42.451878
  C14       23.725508        9.205782       40.498875
  C15       22.894302       10.019394       43.067287
  C16       24.222208       10.353652       41.070438
  H8        24.108002        8.847977       39.554375
  C17       23.861214       10.742200       42.356430
  H9        22.573952       10.292591       44.061844
  H10       24.997334       10.926578       40.583267
  H11       24.343557       11.640086       42.713566
  C18       20.844351        0.839817       42.595993
  C19       21.987469        1.079341       43.637199
  H12       21.878904        0.468203       44.558636
  H13       22.937283        0.827064       43.118999
  H14       22.048975        2.129975       43.993160
  C20       19.528038        0.751542       43.388725
  H15       19.546751       -0.068862       44.137665
  H16       19.327566        1.716590       43.901379
  H17       18.703751        0.516981       42.681725
  C21       21.345633        7.837565       42.859318
  C22       21.560675        7.418427       44.275021
  H18       20.980291        6.528420       44.599621
  H19       22.655699        7.237520       44.325150
  H20       21.324347        8.231735       44.994045
  C23       20.051950        8.655869       42.919804
  H21       20.194723        9.381975       43.748482
  H22       19.829037        9.200424       41.977421
  H23       19.306122        7.867843       43.158710
  N1        21.083000        1.230775       40.339417
  N2        22.293158        7.209678       40.775040
  C24       21.159655        1.833961       38.921757
  H24       20.601719        1.304682       38.119949
  H25       20.736824        2.860737       38.886166
  C25       22.614708        1.899047       38.477699
  H26       23.030357        0.907116       38.199078
  H27       23.134535        2.292707       39.377216
  C26       22.772171        2.705868       37.296196
  H28       22.188150        2.231411       36.478806
  H29       22.260265        3.667383       37.514740
  C27       24.209127        2.896560       36.857372
  H30       24.561382        1.843821       36.812904
  H31       24.712513        3.411345       37.703491
  C28       24.369719        3.733032       35.554726
  H32       23.835474        4.698428       35.684776
  H33       25.426508        4.068169       35.482628
  C29       24.007912        3.007932       34.255333
  H34       22.946871        2.717768       34.411274
  H35       24.568050        2.048493       34.261757
  C30       24.197084        3.767849       32.975910
  H36       23.568640        4.638428       33.261337
  H37       25.236324        4.160302       32.959053
  C31       23.796839        2.898823       31.788385
  H38       24.453712        2.004014       31.741962
  H39       22.749052        2.540892       31.879749
  C32       24.059933        3.701169       30.455881
  H40       23.372988        4.572131       30.393797
  H41       25.124651        4.017111       30.426210
  C33       23.815975        2.873988       29.263754
  H42       24.488522        1.990286       29.231022
  H43       22.786406        2.469690       29.367908
  C34       23.973255        3.739036       27.948702
  H44       24.975817        4.196474       27.807493
  H45       23.179760        4.510294       27.849468
  C35       23.693068        2.857492       26.688988
  H46       24.449108        2.044897       26.738102
  H47       22.779648        2.225740       26.718599
  C36       23.761553        3.712679       25.374815
  H48       23.005053        4.517705       25.256655
  H49       24.775270        4.161321       25.448429
  C37       23.776443        2.903150       24.052582
  H50       24.617809        2.182472       24.136541
  H51       22.900551        2.224178       23.974297
  C38       24.073952        3.813364       22.879910
  H52       23.251377        4.554866       22.791212
  H53       25.041145        4.340929       23.023205
  C39       24.076471        3.072949       21.540491
  H54       24.645550        2.126035       21.658073
  H55       22.993605        2.846990       21.437220
  C40       24.665230        3.805941       20.350716
  H56       24.006348        4.690922       20.220316
  H57       25.747389        4.018329       20.485411
  C41       24.514423        2.956189       19.080330
  H58       23.477314        2.623723       18.860804
  H59       24.852341        3.556178       18.208467
  H60       25.135624        2.062068       19.301641
  C42       22.729702        6.654821       39.402885
  H61       23.827873        6.686005       39.347672
  H62       22.501238        5.588146       39.261440
  C43       21.989647        7.482274       38.289856
  H63       20.943104        7.134609       38.424759
  H64       22.035004        8.590678       38.350700
  C44       22.629269        7.052159       36.924946
  H65       22.875956        5.968966       36.937531
  H66       23.547741        7.672014       36.844276
  C45       21.606102        7.459988       35.838535
  H67       20.640619        6.953127       36.051273
  H68       21.397505        8.549721       35.781170
  C46       22.169256        7.099781       34.459724
  H69       22.249170        5.993364       34.398270
  H70       23.154001        7.589448       34.302170
  C47       21.294264        7.620826       33.289867
  H71       21.332619        8.729441       33.351685
  H72       20.225245        7.333722       33.385216
  C48       22.027998        7.139008       31.973564
  H73       23.086895        7.453734       31.855217
  H74       21.973663        6.030329       31.926653
  C49       21.194660        7.745020       30.762249
  H75       20.147003        7.415378       30.929796
  H76       21.312040        8.849698       30.777414
  C50       21.764557        7.103431       29.489138
  H77       21.595419        6.009570       29.584953
  H78       22.873360        7.083301       29.422274
  C51       21.244263        7.688430       28.221256
  H79       20.160807        7.466565       28.115332
  H80       21.468344        8.775958       28.258579
  C52       21.892271        7.201694       26.929876
  H81       22.909189        7.617973       26.765835
  H82       22.029985        6.100275       26.977112
  C53       21.162815        7.701550       25.703289
  H83       20.086546        7.428325       25.739532
  H84       21.173857        8.798937       25.876324
  C54       21.908550        7.330756       24.355663
  H85       21.854465        6.228323       24.229033
  H86       22.989679        7.580131       24.413033
  C55       21.320225        8.065729       23.121897
  H87       21.765491        9.080488       23.201405
  H88       20.218378        8.195672       23.063841
  C56       21.817459        7.378994       21.888536
  H89       21.640913        6.288683       22.008432
  H90       22.903536        7.536122       21.715130
  C57       20.974537        7.762171       20.629570
  H91       21.093805        8.843954       20.406319
  H92       19.900572        7.572124       20.841232
  C58       21.398493        7.042255       19.327803
  H93       22.498669        6.891540       19.362722
  H94       21.198526        7.796870       18.537304
  C59       20.758816        5.710013       18.978022
  H95       21.382187        4.955289       19.503494
  H96       19.713600        5.684146       19.353754
  H97       20.678717        5.611566       17.874294
