read param card flex append
* Parameters generated by analogy by
* CHARMM General Force Field (CGenFF) program version 1.0.0
*

! Penalties lower than 10 indicate the analogy is fair; penalties between 10
! and 50 mean some basic validation is recommended; penalties higher than
! 50 indicate poor analogy and mandate extensive validation/optimization.

!Atoms modified by Silvia (12.07.16):
! HGR61 POR HG61
! CG2R61 POR CG61
!Atom type change due to lenght by Sílvia
! CG2RC0 --> CGCO
! CG2R52 --> C252
! CG2DC2 --> CGC2
! CG3C50 --> CG50
! CG331  --> CG31
! NG2R52 --> NG52
! CG321  --> CG21
! CG324  --> CG24

! Atom type changed by Sílvia
! C7: C252 --> C252 (CGneFF --> Paper)
! C8: CGC2 --> CGC2
! N1: NG52 --> NG52
! NG3C51 --> NG52

! ++ means BONDS force constant and eq. angle have been modified by Sílvia

BONDS
C252 CGC2  450.00     1.3400 ! genera , from C252 CG2DC3, penalty= 30 ++
C252 CG50  300.00     1.5300 ! genera , from CG2R53 CG3C52, penalty= 74 CHECK !!!
C252 NG52  380.00     1.4000 ! genera , from CG2R53 NG52, penalty= 64 OK
CGC2 C252  365.00     1.4500 ! genera , from CGC2 CG61, penalty= 45 OK
C252 CG50  350.00     1.5050 ! genera , from C252 CG3C52, penalty= 10 OK
CGCO CG50  305.00     1.5200 ! genera , from CGCO CG3C52, penalty= 10 OK
CGCO NG52  310.00     1.3700 ! genera , from CG2R51 NG52, penalty= 30 ++
CG21 NG52  263.00     1.4740 ! genera , from CG21 NG311, penalty= 20 OK
CG24 NG52  300.00     1.4530 ! genera , from CG24 NG2P1, penalty= 20 OK
CG31 CG50  222.50     1.5280 ! genera , from CG31 CG3C51, penalty= 6 Ok

! ++ means ANGLES force constant and eq. angle have been modified by Sílvia

ANGLES
CGC2 C252 CG50   10.00    123.50 ! genera , from CG2DC3 C252 NG2R53, penalty= 271 ++
CGC2 C252 NG52   40.00    130.00 ! genera , from CG2DC3 C252 NG2R53, penalty= 267.5
CG50 C252 NG52   90.00    105.80 ! genera , from CG3C52 CG2R53 OG3C51, penalty= 102.8
C252 CGC2 CGC2   48.00    123.00 ! genera , from CGC2 CGC2 CGC2, penalty= 23.5 !!!!
C252 CGC2 HGA4   25.50    119.00 ! genera , from CGC2 CGC2 HGA4, penalty= 23.5 ++
CGC2 CGC2 C252   40.00    123.00 ! genera , from CG2DC3 CGC2 CG61, penalty= 12 ++
C252 CGC2 HGA4   32.00    120.00 ! genera , from CG61 CGC2 HGA4, penalty= 8.5 diff from DiI
CGC2 C252 CG50   65.00    126.70 ! genera , from CG3C52 CG2R53 OG2D1, penalty= 79.2 diff from DiI
CGC2 C252 NG52   10.80    125.60 ! genera , from CG21 CG2R51 NG52, penalty= 75 ++
CG50 C252 NG52  170.00    112.00 ! genera , from CG3C52 C252 NG2R50, penalty= 33.2 OK
CG61 CGCO CG50   60.00    130.00 ! genera , from CG61 CGCO CG3C52, penalty= 1.2 OK
CG61 CGCO NG52  130.00    130.00 ! genera , from CG61 CGCO NG2R50, penalty= 32 OK
CGCO CGCO CG50  143.00    110.00 ! genera , from CGCO CGCO CG3C52, penalty= 1.2 ++
CGCO CGCO NG52  100.00    110.00 ! genera , from CGCO CGCO NG2R50, penalty= 32 OK
CG21 CG21 NG52   43.70    112.20 ! genera , from CG31 CG21 NG311, penalty= 3.9
NG52 CG21 HGA2   33.43    110.10 ! genera , from NG311 CG21 HGA2, penalty= 3 ++
CG21 CG24 NG52   70.00    113.70 ! genera , from CG21 CG24 NG2P1, penalty= 2 ++
NG52 CG24 HGA2   33.43    110.10 ! genera , from NG2P1 CG24 HGA2, penalty= 2 ++
CG50 CG31 HGA3   33.43    110.10   22.53   2.17900 ! genera , from CG3C51 CG31 HGA3, penalty= 0.8 ++
C252 CG50 CGCO  105.00    105.00 ! genera , from CG2R51 CG3C52 CGCO, penalty= 14 ++
C252 CG50 CG31   32.00    112.20 ! genera , from CG2R51 CG3C54 NG3P2, penalty= 63.5 ++
C252 CG50 CGCO   70.00    105.00 ! genera , from C252 CG3C52 CGCO, penalty= 10 diff from DiI
C252 CG50 CG31   62.00    103.00 ! genera , from CG2R51 CG3C54 NG3P2, penalty= 61.5 diff from DiI
CGCO CG50 CG31   32.00    112.20 ! genera , from CG2R51 CG3C54 NG3P2, penalty= 60.5 ++
CG31 CG50 CG31   58.35    113.50   11.16   2.56100 ! genera , from CG21 CG3RC1 CG31, penalty= 22.9 OK
C252 NG52 CGCO   60.00    107.20 ! genera , from CG2R51 NG52 CG2R53, penalty= 2 ++
C252 NG52 CG24   62.30    140.50 ! genera , from C252 NG52 HGP2, penalty= 141 ++
CGCO NG52 CG24   62.30    112.30 ! genera , from CG2R51 NG52 HGP2, penalty= 142 ++
C252 NG52 CGCO   60.00    106.90 ! genera , from CGCO NG52 CG3C52, penalty= 75
C252 NG52 CG21   47.00    103.90 ! genera , from CG3C52 NG52 NG3P2, penalty= 123.5
CGCO NG52 CG21   47.00    103.90 ! genera , from CG3C52 NG52 NG3P2, penalty= 122.5
CGC2 CGC2 CGC2   17.30    123.00 ! genera , Added by Sílvia ++

! ++ means DIHEDRALS force constant and eq. angle have been modified by Sílvia

DIHEDRALS
CG50 C252 CGC2 CGC2     0.9000  1     0.00 ! genera , from CGC2 CGC2 CGC2 CG21, penalty= 255 ++
CG50 C252 CGC2 CGC2     2.1000  2   180.00 ! genera , from CGC2 CGC2 CGC2 CG21, penalty= 255 ++
CG50 C252 CGC2 CGC2     0.2200  3     0.00 ! genera , from CGC2 CGC2 CGC2 CG21, Added by Sílvia ++
CG50 C252 CGC2 CGC2     0.2500  5   180.00 ! genera , from CGC2 CGC2 CGC2 CG21, Added by Sílvia ++
CG50 C252 CGC2 CGC2     0.1000  6     0.00 ! genera , from CGC2 CGC2 CGC2 CG21, Added by Sílvia ++
CG50 C252 CGC2 HGA4     0.5000  2   180.00 ! genera , from NG2R53 C252 CG2DC3 HGA5, penalty= 117.5 ++
NG52 C252 CGC2 CGC2     0.5600  1   180.00 ! genera , from NG2R53 C252 CG2DC3 HGA5, penalty= 255 ++
CGC2 C252 CG50 CGCO     0.0000  3     0.00 ! genera , from CG2R51 CG2R51 CG3C52 CGCO, penalty= 146.5 ++
CGC2 C252 CG50 CG31     0.3000  3     0.00 ! genera , from CG2R51 CG2R51 CG3C52 CG3C52, penalty= 177.5 ++
CGC2 C252 CG50 CG31     0.4000  3     0.00 ! genera , from CG2R51 CG2R51 CG3C52 CG3C52, Added by Sílvia ++
NG52 C252 CG50 CGCO     1.300  3   180.00 ! genera , from OG3C51 CG2R53 CG3C52 CG2R51, penalty= 112.6 ++
NG52 C252 CG50 CGCO     0.2890  4     0.00 ! genera , from OG3C51 CG2R53 CG3C52 CG2R51, penalty= 112.6 diff from DiI
NG52 C252 CG50 CG31     0.5000  2     0.00 ! genera , from OG3C51 CG2R53 CG3C52 CG3C52, penalty= 142.6 ++
CGC2 C252 NG52 CGCO     1.5000  2   180.00 ! genera , from CG2R51 CG2R51 NG52 CG3C52, penalty= 210.5 ++
CGC2 C252 NG52 CG21     8.0000  2   180.00 ! genera , from CG2R51 CG2R51 NG52 CG3C52, penalty= 167.5
CG50 C252 NG52 CGCO     6.0000  2   180.00 ! genera , from NG2R50 CG2R53 NG52 CG3C52, penalty= 232.5
CG50 C252 NG52 CG21     4.0000  2   180.00 ! genera , from NG2R50 CG2R53 NG52 CG3C52, penalty= 189.5
C252 CGC2 CGC2 CGC2     0.5600  1   180.00 ! genera , from CGC2 CGC2 CGC2 CGC2, penalty= 23.5 ++
C252 CGC2 CGC2 CGC2     4.0000  2   180.00 ! genera , from CGC2 CGC2 CGC2 CGC2, penalty= 23.5 ++
C252 CGC2 CGC2 CGC2     1.0000  3     0.00 ! genera , from CGC2 CGC2 CGC2 CGC2, penalty= 23.5 diff from DiI CHECKKKKK!!!
CGC2 CGC2 CGC2 C252     0.5600  1   180.00 ! genera , from CGC2 CGC2 CGC2 CGC2, penalty= 22.5
CGC2 CGC2 CGC2 C252     7.0000  2   180.00 ! genera , from CGC2 CGC2 CGC2 CGC2, penalty= 22.5
C252 CGC2 CGC2 HGA4     5.2000  2   180.00 ! genera , from CGC2 CGC2 CGC2 HGA4, penalty= 22.5 ++
C252 CGC2 CGC2 HGA4     1.0000  2   180.00 ! genera , from CGC2 CGC2 CGC2 HGA4, penalty= 23.5 diff from DiI
CGC2 CGC2 C252 CG50     0.7500  2   180.00 ! genera , from CG2DC3 CGC2 CG61 CG61, penalty= 142
CGC2 CGC2 C252 CG50     0.1900  4     0.00 ! genera , from CG2DC3 CGC2 CG61 CG61, penalty= 142
CGC2 CGC2 C252 NG52     0.7500  2   180.00 ! genera , from CG2DC3 CGC2 CG61 CG61, penalty= 133.5
CGC2 CGC2 C252 NG52     0.1900  4     0.00 ! genera , from CG2DC3 CGC2 CG61 CG61, penalty= 133.5
HGA4 CGC2 C252 CG50     0.6000  2   180.00 ! genera , from HGA4 CGC2 CG61 CG61, penalty= 138.5
HGA4 CGC2 C252 NG52     0.5000  2   180.00 ! genera , from HGA4 CGC2 CG61 CG61, penalty= 130 ++
CGC2 C252 CG50 CGCO     1.5000  3   180.00 ! genera , from CG2R51 CG2R51 CG3C52 CGCO, penalty= 77.5 diff from DiI
CGC2 C252 CG50 CG31     0.5000  2     0.00 ! genera , from CG2R51 CG2R51 CG3C52 CG3C52, penalty= 108.5 ++
NG52 C252 CG50 CGCO     3.5000  3   180.00 ! genera , from NG2R50 C252 CG3C52 CGCO, penalty= 42 diff from DiI
CGC2 C252 NG52 CGCO    12.0000  2   180.00 ! genera , from CG2R51 CG2R51 NG52 CG2R53, penalty= 71.5 diff from DiI
NG52 C252 CG50 CG31     0.4000  3   180.00 ! genera , from NG2R50 C252 CG3C52 CG3C52, penalty= 73 ++
CGC2 C252 NG52 CG24     1.0000  2   180.00 ! genera , from CG2R51 C252 NG52 CG3C54, penalty= 88.7 ++
CG50 C252 NG52 CGCO     2.5000  2   180.00 ! genera , from CG21 CG2R51 NG52 CG2R53, penalty= 39 diff from DiI
CG50 C252 NG52 CG24     1.0000  2   180.00 ! genera , from CG2R51 C252 NG52 CG3C54, penalty= 121.2 ++
CG61 CG61 CGCO CG50     0.0000  2   180.00 ! genera , from CG61 CG61 CGCO CG3C52, penalty= 1.2 OK
CG61 CG61 CGCO NG52     1.5000  2   180.00 ! genera , from CG61 CG61 CGCO NG2R50, penalty= 32 OK
HG61 CG61 CGCO CG50     0.0000  2   180.00 ! genera , from HG61 CG61 CGCO CG3C52, penalty= 1.2 OK
HG61 CG61 CGCO NG52     0.8000  2   180.00 ! genera , from HG61 CG61 CGCO NG2R50, penalty= 32 OK
CG61 CGCO CGCO CG50     2.5000  2   180.00 ! genera , from CG61 CGCO CGCO CG3C52, penalty= 1.2 OK
CG61 CGCO CGCO NG52     1.5000  2   180.00 ! genera , from CG61 CGCO CGCO NG2R50, penalty= 32 OK
CG50 CGCO CGCO NG52     6.5000  2   180.00 ! genera , from CG3C52 CGCO CGCO NG2R50, penalty= 33.2 Ok
CG50 CGCO CGCO NG52     6.0000  2   180.00 ! genera , from CG3C52 CGCO CGCO NG52, penalty= 1.2 diff from DiI
CG61 CGCO CG50 C252     0.9000  3     0.00 ! genera , from CG61 CGCO CG3C52 CG2R51, penalty= 14 diff from DiI
CG61 CGCO CG50 C252     3.5000  3     0.00 ! genera , from CG61 CGCO CG3C52 C252, penalty= 10 OK
CG61 CGCO CG50 CG31     0.5000  2     0.00 ! genera , from CG61 CGCO CG3C52 CG3C52, penalty= 41 ++
CG61 CGCO CG50 CG31     0.4000  3     0.00 ! genera , from CG61 CGCO CG3C52 CG3C52, Added by Sílvia ++
CGCO CGCO CG50 C252     0.5000  3   180.00 ! genera , from CGCO CGCO CG3C52 CG2R51, penalty= 14 ++
CGCO CGCO CG50 C252     2.0000  3   180.00 ! genera , from CGCO CGCO CG3C52 C252, penalty= 10 diff from DiI
CGCO CGCO CG50 CG31     1.0300  3   180.00 ! genera , from CGCO CGCO CG3C52 CG3C52, penalty= 41
CG61 CGCO NG52 C252    12.0000  2   180.00 ! genera , from CG2R51 CG2R51 NG52 CG2R53, penalty= 80 diff from DiI
CG61 CGCO NG52 CG24     9.0000  2   180.00 ! genera , from CG2R51 C252 NG52 CG3C54, penalty= 110.2 ++
CGCO CGCO NG52 C252     4.0000  2   180.00 ! genera , from CG2R51 CG2R51 NG52 CG2R53, penalty= 52 ++
CGCO CGCO NG52 CG24     9.0000  2   180.00 ! genera , from CG2R51 C252 NG52 CG3C54, penalty= 82.2 ++
CG61 CGCO NG52 C252     4.0000  2   180.00 ! genera , from CG61 CGCO NG52 CG3C52, penalty= 75 OK
CG61 CGCO NG52 CG21     4.0000  2   180.00 ! genera , from CG61 CGCO NG52 CG3C52, penalty= 31
CGCO CGCO NG52 C252     1.9600  3     0.00 ! genera , from CGCO CGCO NG52 CG3C52, penalty= 75 diff from DiI
CGCO CGCO NG52 CG21     1.9600  3     0.00 ! genera , from CGCO CGCO NG52 CG3C52, penalty= 31
CG21 CG21 CG21 NG52     0.1600  1   180.00 ! genera , from CG21 CG21 CG21 OG301, penalty= 33
CG21 CG21 CG21 NG52     0.3900  2     0.00 ! genera , from CG21 CG21 CG21 OG301, penalty= 33
NG52 CG21 CG21 HGA2     0.1600  3     0.00 ! genera , from NG311 CG21 CG31 HGA3, penalty= 9
CG21 CG21 CG24 NG52     0.1950  3     0.00 ! genera , from CG21 CG21 CG24 NG2P1, penalty= 2 OK
HGA2 CG21 CG24 NG52     0.1950  3     0.00 ! genera , from HGA2 CG21 CG24 NG2P1, penalty= 2 OK
CG21 CG21 NG52 C252     2.5000  1   180.00 ! genera , from NG311 CG21 NG311 CG61, penalty= 89
CG21 CG21 NG52 C252     1.5000  2     0.00 ! genera , from NG311 CG21 NG311 CG61, penalty= 89
CG21 CG21 NG52 C252     0.5000  3     0.00 ! genera , from NG311 CG21 NG311 CG61, penalty= 89
CG21 CG21 NG52 CGCO     2.5000  1   180.00 ! genera , from NG311 CG21 NG311 CG61, penalty= 81
CG21 CG21 NG52 CGCO     1.5000  2     0.00 ! genera , from NG311 CG21 NG311 CG61, penalty= 81
CG21 CG21 NG52 CGCO     0.5000  3     0.00 ! genera , from NG311 CG21 NG311 CG61, penalty= 81
HGA2 CG21 NG52 C252     0.0000  3   180.00 ! genera , from HGA2 CG21 NG311 CG61, penalty= 49.5
HGA2 CG21 NG52 CGCO     0.0000  3   180.00 ! genera , from HGA2 CG21 NG311 CG61, penalty= 41.5
CG21 CG24 NG52 C252     2.2500  1     0.00 ! genera , from CG21 CG24 NG2P1 CG2N1, penalty= 93 ++
CG21 CG24 NG52 C252     0.9000  2   180.00 ! genera , from CG21 CG24 NG2P1 CG2N1, Added by Sílvia ++
CG21 CG24 NG52 CGCO     2.2500  1   180.00 ! genera , from CG21 CG24 NG2P1 CG2N1, penalty= 93 ++
CG21 CG24 NG52 CGCO     0.9900  2   180.00 ! genera , from CG21 CG24 NG2P1 CG2N1, Added by Sílvia ++
HGA2 CG24 NG52 C252     0.1500  3   180.00 ! genera , from HGA3 CG334 NG2P1 CG2D1, penalty= 88 OK
HGA2 CG24 NG52 CGCO     0.1500  3   180.00 ! genera , from HGA3 CG334 NG2P1 CG2D1, penalty= 88 OK
HGA3 CG31 CG50 C252     0.1600  3     0.00 ! genera , from HGA3 CG31 CG3C51 CG3C52, penalty= 81 OK
HGA3 CG31 CG50 C252     0.1600  3     0.00 ! genera , from HGA3 CG31 CG3C51 CG3C52, penalty= 80 OK
HGA3 CG31 CG50 CGCO     0.1600  3     0.00 ! genera , from HGA3 CG31 CG3C51 CG3C52, penalty= 80 OK
HGA3 CG31 CG50 CG31     0.1600  3     0.00 ! genera , from HGA3 CG31 CG3RC1 CG21, penalty= 22.9

IMPROPERS

END
RETURN

